
    [
        {
           "id" : 0,
           "nombre" : "Escuela de suboficiales",
           "horariosAtencion" : "7 A 21 HS",
           "telefono" : "0800-7777",
           "direccion" : "Los Sauces 1645",
           "posicion": {
                "lat": -34.527678, "lon": -58.695592
            } 
        },
        {
            "id" : 1,
           "nombre" : "Estación San Miguel",
           "horariosAtencion" : "7 A 21 HS",
           "telefono" : "0800-7777",
           "direccion" : "Los Abrojos, Partido de Malvinas Argentinas, 1613 Los Polvorines, Argentina",
           "posicion": {
                "lat": -34.522032 , "lon": -58.690628
            } 
        },
        {
            "id" : 2,
           "nombre" : "Estacion General Lemos",
           "horariosAtencion" : "7 A 21 HS",
           "telefono" : "0800-7777",
           "direccion" : "General Lemos, Avenida Presidente Arturo U. Illia, Partido de San Miguel, B1663 San Miguel, Argentina",
           "posicion": {
                "lat": -34.532894, "lon": -58.700888
            } 
        },
        {
            "id" : 3,
           "nombre" : "La casa de la chola",
           "horariosAtencion" : "7 A 21 HS",
           "telefono" : "0800-7777",
           "direccion" : "Lourdes, Partido de Malvinas Argentinas, 1515 Los Polvorines, Argentina",
           "posicion": {
                "lat": -34.520941,"lon": -58.714116
            } 
        }
    ]
